{
  "project_info": {
    "project_number": "406463462372",
    "project_id": "incivismeapi",
    "storage_bucket": "incivismeapi.appspot.com"
  },
  "client": [
    {
      "client_info": {
        "mobilesdk_app_id": "1:406463462372:android:c898b6bc78671f5b9f65f1",
        "android_client_info": {
          "package_name": "com.example.example.malagente"
        }
      },
      "oauth_client": [
        {
          "client_id": "406463462372-lelrktl5cat03mqda14avkvkce0u4ueq.apps.googleusercontent.com",
          "client_type": 3
        }
      ],
      "api_key": [
        {
          "current_key": "AIzaSyCsj4d0IMhKiKf5Wq34PA8IsHnrTF_m9hU"
        }
      ],
      "services": {
        "appinvite_service": {
          "other_platform_oauth_client": [
            {
              "client_id": "406463462372-lelrktl5cat03mqda14avkvkce0u4ueq.apps.googleusercontent.com",
              "client_type": 3
            }
          ]
        }
      }
    }
  ],
  "configuration_version": "1"
}